# Exported from ProBuilder
# http://www.procore3d.com/probuilder
# 26/01/2019 01:57:48 p. m.

mtllib ./Icosphere.mtl
o Icosphere

g Mask
v 2.650581 5.032309 -7.530007 1 1 1
v 2.813819 4.932592 -7.790664 1 1 1
v 2.813296 4.932271 -7.790875 1 1 1
v 2.813296 4.932271 -7.790875 1 1 1
v 2.813819 4.932592 -7.790664 1 1 1
v 2.813764 4.910385 -7.521242 1 1 1
v 2.97603 2.754005 -7.530406 1 1 1
v 3.121781 3.196212 -7.766743 1 1 1
v 2.813358 2.854382 -7.791965 0.9991921 1 0.9991921
v 2.972725 2.752495 -7.530416 1 1 1
v 2.6528 2.752495 -7.530417 1 1 1
v 2.812268 2.853476 -7.790651 1 1 1
v 2.813358 2.854382 -7.791965 0.9991921 1 0.9991921
v 3.121781 3.196212 -7.766743 1 1 1
v 2.974689 3.386705 -7.968093 0.985296 1 0.985296
v 2.813358 2.854382 -7.791965 0.9991921 1 0.9991921
v 2.973386 3.387781 -7.968789 0.9809117 1 0.9809117
v 2.652996 3.387476 -7.969026 0.8431832 1 0.8431832
v 2.5041 3.19627 -7.767303 1 1 1
v 2.388331 3.493512 -7.955038 0.5013813 1 0.5013813
v 2.18286 3.556772 -7.753891 0.9176893 1 0.9176893
v 2.97603 2.754005 -7.530406 1 1 1
v 3.420969 3.269554 -7.526351 1 1 1
v 3.121781 3.196212 -7.766743 1 1 1
v 2.974689 3.386705 -7.968093 0.985296 1 0.985296
v 3.121781 3.196212 -7.766743 1 1 1
v 3.235547 3.493551 -7.955466 0.9985858 1 0.9985858
v 3.121781 3.196212 -7.766743 1 1 1
v 3.420969 3.269554 -7.526351 1 1 1
v 3.490035 3.565638 -7.692069 1 1 1
v 3.121781 3.196212 -7.766743 1 1 1
v 3.490035 3.565638 -7.692069 1 1 1
v 3.235547 3.493551 -7.955466 0.9985858 1 0.9985858
v 2.202423 3.27952 -7.526634 1 1 1
v 2.5041 3.19627 -7.767303 1 1 1
v 2.18286 3.556772 -7.753891 0.9176893 1 0.9176893
v 2.974073 3.38974 -7.969768 0.9776105 1 0.9776105
v 3.235547 3.493551 -7.955466 0.9985858 1 0.9985858
v 3.072656 3.647673 -8.129412 0.1115456 1 0.1115456
v 2.652996 3.387476 -7.969026 0.8431832 1 0.8431832
v 2.973386 3.387781 -7.968789 0.9809117 1 0.9809117
v 2.812853 3.556146 -8.117168 0.08849493 1 0.08849493
v 2.812853 3.556146 -8.117168 0.08849493 1 0.08849493
v 2.974073 3.38974 -7.969768 0.9776105 1 0.9776105
v 3.072656 3.647673 -8.129412 0.1115456 1 0.1115456
v 2.652996 3.387476 -7.969026 0.8431832 1 0.8431832
v 2.812853 3.556146 -8.117168 0.08849493 1 0.08849493
v 2.553234 3.646801 -8.128757 0.0530218 1 0.0530218
v 2.652996 3.387476 -7.969026 0.8431832 1 0.8431832
v 2.553234 3.646801 -8.128757 0.0530218 1 0.0530218
v 2.388331 3.493512 -7.955038 0.5013813 1 0.5013813
v 3.072656 3.647673 -8.129412 0.1115456 1 0.1115456
v 2.812763 3.808445 -8.228151 0.002734546 1 0.002734546
v 2.812853 3.556146 -8.117168 0.08849493 1 0.08849493
v 2.553234 3.646801 -8.128757 0.0530218 1 0.0530218
v 2.812853 3.556146 -8.117168 0.08849493 1 0.08849493
v 2.812763 3.808445 -8.228151 0.002734546 1 0.002734546
v 3.490035 3.565638 -7.692069 1 1 1
v 3.435061 3.656236 -7.854528 1 1 1
v 3.235547 3.493551 -7.955466 0.9985858 1 0.9985858
v 3.235547 3.493551 -7.955466 0.9985858 1 0.9985858
v 3.435061 3.656236 -7.854528 1 1 1
v 3.312605 3.772641 -8.075508 0.794443 1 0.794443
v 3.072656 3.647673 -8.129412 0.1115456 1 0.1115456
v 3.235547 3.493551 -7.955466 0.9985858 1 0.9985858
v 3.312605 3.772641 -8.075508 0.794443 1 0.794443
v 3.420969 3.269554 -7.526351 1 1 1
v 3.595758 3.551061 -7.426685 1 1 1
v 3.490035 3.565638 -7.692069 1 1 1
v 2.388331 3.493512 -7.955038 0.5013813 1 0.5013813
v 2.553234 3.646801 -8.128757 0.0530218 1 0.0530218
v 2.313437 3.774 -8.076345 0.01274433 1 0.01274433
v 3.312605 3.772641 -8.075508 0.794443 1 0.794443
v 3.075629 3.919102 -8.217799 0.002769345 1 0.002769345
v 3.072656 3.647673 -8.129412 0.1115456 1 0.1115456
v 3.075629 3.919102 -8.217799 0.002769345 1 0.002769345
v 2.812763 3.808445 -8.228151 0.002734546 1 0.002734546
v 3.072656 3.647673 -8.129412 0.1115456 1 0.1115456
v 2.553234 3.646801 -8.128757 0.0530218 1 0.0530218
v 2.812763 3.808445 -8.228151 0.002734546 1 0.002734546
v 2.549982 3.91915 -8.217503 2.393654E-07 1 2.393654E-07
v 2.313437 3.774 -8.076345 0.01274433 1 0.01274433
v 2.553234 3.646801 -8.128757 0.0530218 1 0.0530218
v 2.549982 3.91915 -8.217503 2.393654E-07 1 2.393654E-07
v 3.490035 3.565638 -7.692069 1 1 1
v 3.514335 3.626892 -7.57576 1 1 1
v 3.435061 3.656236 -7.854528 1 1 1
v 3.490035 3.565638 -7.692069 1 1 1
v 3.595758 3.551061 -7.426685 1 1 1
v 3.514335 3.626892 -7.57576 1 1 1
v 3.435061 3.656236 -7.854528 1 1 1
v 3.514335 3.626892 -7.57576 1 1 1
v 3.609539 3.82167 -7.700632 1 1 1
v 3.312605 3.772641 -8.075508 0.794443 1 0.794443
v 3.435061 3.656236 -7.854528 1 1 1
v 3.51481 3.920939 -7.960524 1 1 1
v 3.075629 3.919102 -8.217799 0.002769345 1 0.002769345
v 2.812345 4.081466 -8.26632 0.0007627826 1 0.0007627826
v 2.812763 3.808445 -8.228151 0.002734546 1 0.002734546
v 2.549982 3.91915 -8.217503 2.393654E-07 1 2.393654E-07
v 2.812763 3.808445 -8.228151 0.002734546 1 0.002734546
v 2.812345 4.081466 -8.26632 0.0007627826 1 0.0007627826
v 3.435061 3.656236 -7.854528 1 1 1
v 3.609539 3.82167 -7.700632 1 1 1
v 3.51481 3.920939 -7.960524 1 1 1
v 3.51481 3.920939 -7.960524 1 1 1
v 3.338331 4.081562 -8.117127 0.6016316 1 0.6016316
v 3.312605 3.772641 -8.075508 0.794443 1 0.794443
v 3.338331 4.081562 -8.117127 0.6016316 1 0.6016316
v 3.075629 3.919102 -8.217799 0.002769345 1 0.002769345
v 3.312605 3.772641 -8.075508 0.794443 1 0.794443
v 2.313437 3.774 -8.076345 0.01274433 1 0.01274433
v 2.549982 3.91915 -8.217503 2.393654E-07 1 2.393654E-07
v 2.287199 4.081562 -8.117129 9.381073E-06 1 9.381073E-06
v 1.920655 4.081562 -7.493749 1 1 1
v 1.958716 4.081562 -7.601833 1 1 1
v 1.969598 4.344427 -7.491026 1 1 1
v 3.606384 3.556632 -7.385853 1 1 1
v 3.514335 3.626892 -7.57576 1 1 1
v 3.595758 3.551061 -7.426685 1 1 1
v 3.697784 3.818744 -7.429107 1 1 1
v 3.514335 3.626892 -7.57576 1 1 1
v 3.606384 3.556632 -7.385853 1 1 1
v 3.697784 3.818744 -7.429107 1 1 1
v 3.609539 3.82167 -7.700632 1 1 1
v 3.514335 3.626892 -7.57576 1 1 1
v 3.075629 4.244021 -8.217799 0.07455769 1 0.07455769
v 3.075629 3.919102 -8.217799 0.002769345 1 0.002769345
v 3.338331 4.081562 -8.117127 0.6016316 1 0.6016316
v 3.075629 4.244021 -8.217799 0.07455769 1 0.07455769
v 2.812345 4.081466 -8.26632 0.0007627826 1 0.0007627826
v 3.075629 3.919102 -8.217799 0.002769345 1 0.002769345
v 2.549982 3.91915 -8.217503 2.393654E-07 1 2.393654E-07
v 2.812345 4.081466 -8.26632 0.0007627826 1 0.0007627826
v 2.549898 4.244021 -8.217799 4.535585E-07 1 4.535585E-07
v 2.549982 3.91915 -8.217503 2.393654E-07 1 2.393654E-07
v 2.549898 4.244021 -8.217799 4.535585E-07 1 4.535585E-07
v 2.287199 4.081562 -8.117129 9.381073E-06 1 9.381073E-06
v 3.708809 4.081562 -7.54001 1 1 1
v 3.609539 3.82167 -7.700632 1 1 1
v 3.697784 3.818744 -7.429107 1 1 1
v 3.51481 3.920939 -7.960524 1 1 1
v 3.609539 3.82167 -7.700632 1 1 1
v 3.597521 4.081562 -7.792475 1 1 1
v 3.708809 4.081562 -7.54001 1 1 1
v 3.597521 4.081562 -7.792475 1 1 1
v 3.609539 3.82167 -7.700632 1 1 1
v 3.597521 4.081562 -7.792475 1 1 1
v 3.51481 4.242184 -7.960524 1 1 1
v 3.51481 3.920939 -7.960524 1 1 1
v 3.51481 4.242184 -7.960524 1 1 1
v 3.338331 4.081562 -8.117127 0.6016316 1 0.6016316
v 3.51481 3.920939 -7.960524 1 1 1
v 2.218608 3.920939 -8.022346 0.01055743 1 0.01055743
v 2.287199 4.081562 -8.117129 9.381073E-06 1 9.381073E-06
v 2.218608 4.242184 -8.022346 0.00493175 1 0.00493175
v 3.746506 4.081562 -7.444717 1 1 1
v 3.708809 4.081562 -7.54001 1 1 1
v 3.697784 3.818744 -7.429107 1 1 1
v 3.075629 4.244021 -8.217799 0.07455769 1 0.07455769
v 2.812362 4.354825 -8.228242 0.03880168 1 0.03880168
v 2.812345 4.081466 -8.26632 0.0007627826 1 0.0007627826
v 2.549898 4.244021 -8.217799 4.535585E-07 1 4.535585E-07
v 2.812345 4.081466 -8.26632 0.0007627826 1 0.0007627826
v 2.812362 4.354825 -8.228242 0.03880168 1 0.03880168
v 3.311978 4.390043 -8.076086 0.9483779 1 0.9483779
v 3.075629 4.244021 -8.217799 0.07455769 1 0.07455769
v 3.338331 4.081562 -8.117127 0.6016316 1 0.6016316
v 3.51481 4.242184 -7.960524 1 1 1
v 3.311978 4.390043 -8.076086 0.9483779 1 0.9483779
v 3.338331 4.081562 -8.117127 0.6016316 1 0.6016316
v 2.287199 4.081562 -8.117129 9.381073E-06 1 9.381073E-06
v 2.549898 4.244021 -8.217799 4.535585E-07 1 4.535585E-07
v 2.31355 4.390043 -8.076086 0.008809966 1 0.008809966
v 2.232464 4.506887 -7.916352 0.5044854 1 0.5044854
v 2.111638 4.581562 -7.637583 1 1 1
v 2.057986 4.341454 -7.762455 1 1 1
v 3.609539 4.341454 -7.700632 1 1 1
v 3.597521 4.081562 -7.792475 1 1 1
v 3.708809 4.081562 -7.54001 1 1 1
v 3.609539 4.341454 -7.700632 1 1 1
v 3.51481 4.242184 -7.960524 1 1 1
v 3.597521 4.081562 -7.792475 1 1 1
v 3.697752 4.34438 -7.42926 1 1 1
v 3.708809 4.081562 -7.54001 1 1 1
v 3.746506 4.081562 -7.444717 1 1 1
v 3.609539 4.341454 -7.700632 1 1 1
v 3.708809 4.081562 -7.54001 1 1 1
v 3.697752 4.34438 -7.42926 1 1 1
v 3.311978 4.390043 -8.076086 0.9483779 1 0.9483779
v 3.072583 4.515327 -8.129175 0.8840001 1 0.8840001
v 3.075629 4.244021 -8.217799 0.07455769 1 0.07455769
v 3.072583 4.515327 -8.129175 0.8840001 1 0.8840001
v 2.812362 4.354825 -8.228242 0.03880168 1 0.03880168
v 3.075629 4.244021 -8.217799 0.07455769 1 0.07455769
v 2.31355 4.390043 -8.076086 0.008809966 1 0.008809966
v 2.549898 4.244021 -8.217799 4.535585E-07 1 4.535585E-07
v 2.552814 4.514501 -8.129525 0.1004678 1 0.1004678
v 2.549898 4.244021 -8.217799 4.535585E-07 1 4.535585E-07
v 2.812362 4.354825 -8.228242 0.03880168 1 0.03880168
v 2.552814 4.514501 -8.129525 0.1004678 1 0.1004678
v 3.500955 4.506887 -7.854529 1 1 1
v 3.51481 4.242184 -7.960524 1 1 1
v 3.609539 4.341454 -7.700632 1 1 1
v 3.500955 4.506887 -7.854529 1 1 1
v 3.311978 4.390043 -8.076086 0.9483779 1 0.9483779
v 3.51481 4.242184 -7.960524 1 1 1
v 1.969598 4.344427 -7.491026 1 1 1
v 2.111638 4.581562 -7.637583 1 1 1
v 2.070004 4.607293 -7.493749 1 1 1
v 1.969598 4.344427 -7.491026 1 1 1
v 2.057986 4.341454 -7.762455 1 1 1
v 2.111638 4.581562 -7.637583 1 1 1
v 3.072583 4.515327 -8.129175 0.8840001 1 0.8840001
v 2.8145 4.607307 -8.116868 0.9994859 1 0.9994859
v 2.812362 4.354825 -8.228242 0.03880168 1 0.03880168
v 2.552814 4.514501 -8.129525 0.1004678 1 0.1004678
v 2.812362 4.354825 -8.228242 0.03880168 1 0.03880168
v 2.8145 4.607307 -8.116868 0.9994859 1 0.9994859
v 3.238089 4.669346 -7.954935 1 1 1
v 3.072583 4.515327 -8.129175 0.8840001 1 0.8840001
v 3.311978 4.390043 -8.076086 0.9483779 1 0.9483779
v 3.238089 4.669346 -7.954935 1 1 1
v 3.311978 4.390043 -8.076086 0.9483779 1 0.9483779
v 3.500955 4.506887 -7.854529 1 1 1
v 3.555887 4.581562 -7.57576 1 1 1
v 3.609539 4.341454 -7.700632 1 1 1
v 3.697752 4.34438 -7.42926 1 1 1
v 3.555887 4.581562 -7.57576 1 1 1
v 3.500955 4.506887 -7.854529 1 1 1
v 3.609539 4.341454 -7.700632 1 1 1
v 2.552814 4.514501 -8.129525 0.1004678 1 0.1004678
v 2.387439 4.669346 -7.954935 1 1 1
v 2.31355 4.390043 -8.076086 0.008809966 1 0.008809966
v 3.555887 4.581562 -7.57576 1 1 1
v 3.697752 4.34438 -7.42926 1 1 1
v 3.597214 4.607106 -7.428938 1 1 1
v 2.971085 4.774065 -7.969786 1 1 1
v 3.072583 4.515327 -8.129175 0.8840001 1 0.8840001
v 3.238089 4.669346 -7.954935 1 1 1
v 2.971085 4.774065 -7.969786 1 1 1
v 2.8145 4.607307 -8.116868 0.9994859 1 0.9994859
v 3.072583 4.515327 -8.129175 0.8840001 1 0.8840001
v 2.653281 4.775284 -7.968708 1 1 1
v 2.387439 4.669346 -7.954935 1 1 1
v 2.552814 4.514501 -8.129525 0.1004678 1 0.1004678
v 2.8145 4.607307 -8.116868 0.9994859 1 0.9994859
v 2.653281 4.775284 -7.968708 1 1 1
v 2.552814 4.514501 -8.129525 0.1004678 1 0.1004678
v 3.357123 4.769753 -7.692069 1 1 1
v 3.500955 4.506887 -7.854529 1 1 1
v 3.555887 4.581562 -7.57576 1 1 1
v 3.238089 4.669346 -7.954935 1 1 1
v 3.500955 4.506887 -7.854529 1 1 1
v 3.357123 4.769753 -7.692069 1 1 1
v 2.070004 4.607293 -7.493749 1 1 1
v 2.111638 4.581562 -7.637583 1 1 1
v 2.226874 4.783608 -7.489188 1 1 1
v 2.332869 4.769753 -7.753892 1 1 1
v 2.226874 4.783608 -7.489188 1 1 1
v 2.111638 4.581562 -7.637583 1 1 1
v 3.440598 4.783453 -7.427737 1 1 1
v 3.555887 4.581562 -7.57576 1 1 1
v 3.597214 4.607106 -7.428938 1 1 1
v 3.440598 4.783453 -7.427737 1 1 1
v 3.357123 4.769753 -7.692069 1 1 1
v 3.555887 4.581562 -7.57576 1 1 1
v 2.971085 4.774065 -7.969786 1 1 1
v 2.653849 4.775829 -7.96809 1 1 1
v 2.8145 4.607307 -8.116868 0.9994859 1 0.9994859
v 3.121781 4.890579 -7.766744 1 1 1
v 3.238089 4.669346 -7.954935 1 1 1
v 3.357123 4.769753 -7.692069 1 1 1
v 3.121781 4.890579 -7.766744 1 1 1
v 2.971085 4.774065 -7.969786 1 1 1
v 3.238089 4.669346 -7.954935 1 1 1
v 2.378875 4.94423 -7.526635 1 1 1
v 2.226874 4.783608 -7.489188 1 1 1
v 2.332869 4.769753 -7.753892 1 1 1
v 3.246419 4.943947 -7.526281 1 1 1
v 3.357123 4.769753 -7.692069 1 1 1
v 3.440598 4.783453 -7.427737 1 1 1
v 3.246419 4.943947 -7.526281 1 1 1
v 3.121781 4.890579 -7.766744 1 1 1
v 3.357123 4.769753 -7.692069 1 1 1
v 2.813296 4.932271 -7.790875 1 1 1
v 2.653849 4.775829 -7.96809 1 1 1
v 2.971085 4.774065 -7.969786 1 1 1
v 3.121781 4.890579 -7.766744 1 1 1
v 2.813296 4.932271 -7.790875 1 1 1
v 2.971085 4.774065 -7.969786 1 1 1
v 3.246419 4.943947 -7.526281 1 1 1
v 2.974678 5.031998 -7.530407 1 1 1
v 3.121781 4.890579 -7.766744 1 1 1
v 2.974678 5.031998 -7.530407 1 1 1
v 2.813296 4.932271 -7.790875 1 1 1
v 3.121781 4.890579 -7.766744 1 1 1
v 2.650581 5.032309 -7.530007 1 1 1
v 2.813296 4.932271 -7.790875 1 1 1
v 2.974678 5.031998 -7.530407 1 1 1
v 2.813296 4.932271 -7.790875 1 1 1
v 2.974678 5.031998 -7.530407 1 1 1
v 2.813819 4.932592 -7.790664 1 1 1
v 2.202423 3.27952 -7.526634 1 1 1
v 2.649657 2.752944 -7.529603 1 1 1
v 2.5041 3.19627 -7.767303 1 1 1
v 2.813358 2.854382 -7.791965 0.9991921 1 0.9991921
v 2.6528 2.752495 -7.530417 1 1 1
v 2.812268 2.853476 -7.790651 1 1 1
v 2.202423 3.27952 -7.526634 1 1 1
v 2.18286 3.556772 -7.753891 0.9176893 1 0.9176893
v 2.076865 3.542917 -7.489188 1 1 1
v 2.388331 3.493512 -7.955038 0.5013813 1 0.5013813
v 2.232464 3.656236 -7.916351 0.4581993 1 0.4581993
v 2.18286 3.556772 -7.753891 0.9176893 1 0.9176893
v 2.388331 3.493512 -7.955038 0.5013813 1 0.5013813
v 2.313437 3.774 -8.076345 0.01274433 1 0.01274433
v 2.232464 3.656236 -7.916351 0.4581993 1 0.4581993
v 2.076865 3.542917 -7.489188 1 1 1
v 2.18286 3.556772 -7.753891 0.9176893 1 0.9176893
v 2.13808 3.608004 -7.637583 1 1 1
v 2.076865 3.542917 -7.489188 1 1 1
v 2.13808 3.608004 -7.637583 1 1 1
v 2.070004 3.555831 -7.493748 1 1 1
v 2.18286 3.556772 -7.753891 0.9176893 1 0.9176893
v 2.232464 3.656236 -7.916351 0.4581993 1 0.4581993
v 2.13808 3.608004 -7.637583 1 1 1
v 2.13808 3.608004 -7.637583 1 1 1
v 1.969598 3.818696 -7.491025 1 1 1
v 2.070004 3.555831 -7.493748 1 1 1
v 2.13808 3.608004 -7.637583 1 1 1
v 2.232464 3.656236 -7.916351 0.4581993 1 0.4581993
v 2.057986 3.82167 -7.762455 0.8470692 1 0.8470692
v 2.13808 3.608004 -7.637583 1 1 1
v 2.057986 3.82167 -7.762455 0.8470692 1 0.8470692
v 1.969598 3.818696 -7.491025 1 1 1
v 2.232464 3.656236 -7.916351 0.4581993 1 0.4581993
v 2.313437 3.774 -8.076345 0.01274433 1 0.01274433
v 2.218608 3.920939 -8.022346 0.01055743 1 0.01055743
v 2.232464 3.656236 -7.916351 0.4581993 1 0.4581993
v 2.218608 3.920939 -8.022346 0.01055743 1 0.01055743
v 2.057986 3.82167 -7.762455 0.8470692 1 0.8470692
v 2.057986 3.82167 -7.762455 0.8470692 1 0.8470692
v 1.958716 4.081562 -7.601833 1 1 1
v 1.969598 3.818696 -7.491025 1 1 1
v 1.969598 3.818696 -7.491025 1 1 1
v 1.958716 4.081562 -7.601833 1 1 1
v 1.920655 4.081562 -7.493749 1 1 1
v 2.057986 3.82167 -7.762455 0.8470692 1 0.8470692
v 2.218608 3.920939 -8.022346 0.01055743 1 0.01055743
v 2.070004 4.081562 -7.854297 0.5518293 1 0.5518293
v 2.057986 3.82167 -7.762455 0.8470692 1 0.8470692
v 2.070004 4.081562 -7.854297 0.5518293 1 0.5518293
v 1.958716 4.081562 -7.601833 1 1 1
v 1.958716 4.081562 -7.601833 1 1 1
v 2.070004 4.081562 -7.854297 0.5518293 1 0.5518293
v 2.057986 4.341454 -7.762455 1 1 1
v 1.958716 4.081562 -7.601833 1 1 1
v 2.057986 4.341454 -7.762455 1 1 1
v 1.969598 4.344427 -7.491026 1 1 1
v 2.5041 3.19627 -7.767303 1 1 1
v 2.652996 3.387476 -7.969026 0.8431832 1 0.8431832
v 2.388331 3.493512 -7.955038 0.5013813 1 0.5013813
v 2.5041 3.19627 -7.767303 1 1 1
v 2.813358 2.854382 -7.791965 0.9991921 1 0.9991921
v 2.652996 3.387476 -7.969026 0.8431832 1 0.8431832
v 2.649657 2.752944 -7.529603 1 1 1
v 2.813358 2.854382 -7.791965 0.9991921 1 0.9991921
v 2.5041 3.19627 -7.767303 1 1 1
v 2.218608 3.920939 -8.022346 0.01055743 1 0.01055743
v 2.313437 3.774 -8.076345 0.01274433 1 0.01274433
v 2.287199 4.081562 -8.117129 9.381073E-06 1 9.381073E-06
v 2.070004 4.081562 -7.854297 0.5518293 1 0.5518293
v 2.218608 3.920939 -8.022346 0.01055743 1 0.01055743
v 2.218608 4.242184 -8.022346 0.00493175 1 0.00493175
v 2.650581 5.032309 -7.530007 1 1 1
v 2.503747 4.890579 -7.766744 1 1 1
v 2.813296 4.932271 -7.790875 1 1 1
v 2.813296 4.932271 -7.790875 1 1 1
v 2.503747 4.890579 -7.766744 1 1 1
v 2.653281 4.775284 -7.968708 1 1 1
v 2.650581 5.032309 -7.530007 1 1 1
v 2.378875 4.94423 -7.526635 1 1 1
v 2.503747 4.890579 -7.766744 1 1 1
v 2.503747 4.890579 -7.766744 1 1 1
v 2.378875 4.94423 -7.526635 1 1 1
v 2.332869 4.769753 -7.753892 1 1 1
v 2.503747 4.890579 -7.766744 1 1 1
v 2.332869 4.769753 -7.753892 1 1 1
v 2.387439 4.669346 -7.954935 1 1 1
v 2.653281 4.775284 -7.968708 1 1 1
v 2.503747 4.890579 -7.766744 1 1 1
v 2.387439 4.669346 -7.954935 1 1 1
v 2.332869 4.769753 -7.753892 1 1 1
v 2.232464 4.506887 -7.916352 0.5044854 1 0.5044854
v 2.387439 4.669346 -7.954935 1 1 1
v 2.332869 4.769753 -7.753892 1 1 1
v 2.111638 4.581562 -7.637583 1 1 1
v 2.232464 4.506887 -7.916352 0.5044854 1 0.5044854
v 2.387439 4.669346 -7.954935 1 1 1
v 2.232464 4.506887 -7.916352 0.5044854 1 0.5044854
v 2.31355 4.390043 -8.076086 0.008809966 1 0.008809966
v 2.31355 4.390043 -8.076086 0.008809966 1 0.008809966
v 2.232464 4.506887 -7.916352 0.5044854 1 0.5044854
v 2.218608 4.242184 -8.022346 0.00493175 1 0.00493175
v 2.218608 4.242184 -8.022346 0.00493175 1 0.00493175
v 2.287199 4.081562 -8.117129 9.381073E-06 1 9.381073E-06
v 2.31355 4.390043 -8.076086 0.008809966 1 0.008809966
v 2.232464 4.506887 -7.916352 0.5044854 1 0.5044854
v 2.057986 4.341454 -7.762455 1 1 1
v 2.218608 4.242184 -8.022346 0.00493175 1 0.00493175
v 2.218608 4.242184 -8.022346 0.00493175 1 0.00493175
v 2.057986 4.341454 -7.762455 1 1 1
v 2.070004 4.081562 -7.854297 0.5518293 1 0.5518293
v 2.972725 2.752495 -7.530416 1 1 1
v 2.813358 2.854382 -7.791965 0.9991921 1 0.9991921
v 2.6528 2.752495 -7.530417 1 1 1

vn 0.2986794 -0.8138717 0.498401
vn 0.2986794 -0.8138717 0.498401
vn 0.2986794 -0.8138717 0.498401
vn -0.5417749 0.8376919 0.0689356
vn -0.5417749 0.8376919 0.0689356
vn -0.5417749 0.8376919 0.0689356
vn 0.6225675 -0.5184748 -0.5861686
vn 0.6225675 -0.5184748 -0.5861686
vn 0.6225675 -0.5184748 -0.5861686
vn -4.835431E-07 0.9322723 0.3617575
vn -4.835431E-07 0.9322723 0.3617575
vn -4.835431E-07 0.9322723 0.3617575
vn 0.5115377 -0.4056559 -0.7574777
vn 0.5115377 -0.4056559 -0.7574777
vn 0.5115377 -0.4056559 -0.7574777
vn 0.001000407 -0.3149356 -0.9491125
vn 0.001000407 -0.3149356 -0.9491125
vn 0.001000407 -0.3149356 -0.9491125
vn -0.658289 -0.5682261 -0.4937354
vn -0.658289 -0.5682261 -0.4937354
vn -0.658289 -0.5682261 -0.4937354
vn 0.6086842 -0.5206088 -0.5987236
vn 0.6086842 -0.5206088 -0.5987236
vn 0.6086842 -0.5206088 -0.5987236
vn 0.2777247 -0.5882935 -0.7594602
vn 0.2777247 -0.5882935 -0.7594602
vn 0.2777247 -0.5882935 -0.7594602
vn 0.616001 -0.4892464 -0.6173984
vn 0.616001 -0.4892464 -0.6173984
vn 0.616001 -0.4892464 -0.6173984
vn 0.6653969 -0.5645652 -0.4883781
vn 0.6653969 -0.5645652 -0.4883781
vn 0.6653969 -0.5645652 -0.4883781
vn -0.6144368 -0.5256289 -0.588372
vn -0.6144368 -0.5256289 -0.588372
vn -0.6144368 -0.5256289 -0.588372
vn 0.2720856 -0.5794775 -0.7682287
vn 0.2720856 -0.5794775 -0.7682287
vn 0.2720856 -0.5794775 -0.7682287
vn 0.001182532 -0.6605384 -0.7507914
vn 0.001182532 -0.6605384 -0.7507914
vn 0.001182532 -0.6605384 -0.7507914
vn 0.16014 -0.5630256 -0.8107757
vn 0.16014 -0.5630256 -0.8107757
vn 0.16014 -0.5630256 -0.8107757
vn -0.1598457 -0.5615546 -0.8118533
vn -0.1598457 -0.5615546 -0.8118533
vn -0.1598457 -0.5615546 -0.8118533
vn -0.2723725 -0.5784071 -0.7689334
vn -0.2723725 -0.5784071 -0.7689334
vn -0.2723725 -0.5784071 -0.7689334
vn 0.09822506 -0.4006764 -0.9109392
vn 0.09822506 -0.4006764 -0.9109392
vn 0.09822506 -0.4006764 -0.9109392
vn -0.09925807 -0.4006941 -0.9108194
vn -0.09925807 -0.4006941 -0.9108194
vn -0.09925807 -0.4006941 -0.9108194
vn 0.6824547 -0.5153577 -0.5183262
vn 0.6824547 -0.5153577 -0.5183262
vn 0.6824547 -0.5153577 -0.5183262
vn 0.6650968 -0.4424 -0.6016049
vn 0.6650968 -0.4424 -0.6016049
vn 0.6650968 -0.4424 -0.6016049
vn 0.413622 -0.4537156 -0.7893409
vn 0.413622 -0.4537156 -0.7893409
vn 0.413622 -0.4537156 -0.7893409
vn 0.8446901 -0.3976009 -0.3583465
vn 0.8446901 -0.3976009 -0.3583465
vn 0.8446901 -0.3976009 -0.3583465
vn -0.4126765 -0.4521666 -0.7907233
vn -0.4126765 -0.4521666 -0.7907233
vn -0.4126765 -0.4521666 -0.7907233
vn 0.3523812 -0.2932613 -0.8887212
vn 0.3523812 -0.2932613 -0.8887212
vn 0.3523812 -0.2932613 -0.8887212
vn 0.1661298 -0.3069765 -0.9371054
vn 0.1661298 -0.3069765 -0.9371054
vn 0.1661298 -0.3069765 -0.9371054
vn -0.1674019 -0.3072535 -0.936788
vn -0.1674019 -0.3072535 -0.936788
vn -0.1674019 -0.3072535 -0.936788
vn -0.3503067 -0.2939661 -0.8893082
vn -0.3503067 -0.2939661 -0.8893082
vn -0.3503067 -0.2939661 -0.8893082
vn 0.9586486 0.1144538 -0.2605633
vn 0.9586486 0.1144538 -0.2605633
vn 0.9586486 0.1144538 -0.2605633
vn 0.8941092 0.2912651 -0.3401962
vn 0.8941092 0.2912651 -0.3401962
vn 0.8941092 0.2912651 -0.3401962
vn 0.7790664 -0.5606612 -0.2805612
vn 0.7790664 -0.5606612 -0.2805612
vn 0.7790664 -0.5606612 -0.2805612
vn 0.665814 -0.441456 -0.6015051
vn 0.665814 -0.441456 -0.6015051
vn 0.665814 -0.441456 -0.6015051
vn 0.09676956 -0.1376598 -0.985741
vn 0.09676956 -0.1376598 -0.985741
vn 0.09676956 -0.1376598 -0.985741
vn -0.09804786 -0.1379349 -0.9855762
vn -0.09804786 -0.1379349 -0.9855762
vn -0.09804786 -0.1379349 -0.9855762
vn 0.7907394 -0.4175003 -0.4476884
vn 0.7907394 -0.4175003 -0.4476884
vn 0.7907394 -0.4175003 -0.4476884
vn 0.572293 -0.1561176 -0.8050516
vn 0.572293 -0.1561176 -0.8050516
vn 0.572293 -0.1561176 -0.8050516
vn 0.4359799 -0.1557233 -0.8863812
vn 0.4359799 -0.1557233 -0.8863812
vn 0.4359799 -0.1557233 -0.8863812
vn -0.4345307 -0.1547249 -0.8872674
vn -0.4345307 -0.1547249 -0.8872674
vn -0.4345307 -0.1547249 -0.8872674
vn -0.9284576 0.1762583 -0.326955
vn -0.9284576 0.1762583 -0.326955
vn -0.9284576 0.1762583 -0.326955
vn 0.8772804 0.3888659 -0.2813577
vn 0.8772804 0.3888659 -0.2813577
vn 0.8772804 0.3888659 -0.2813577
vn 0.7818997 -0.3569902 -0.5110684
vn 0.7818997 -0.3569902 -0.5110684
vn 0.7818997 -0.3569902 -0.5110684
vn 0.7897345 -0.5543839 -0.2626361
vn 0.7897345 -0.5543839 -0.2626361
vn 0.7897345 -0.5543839 -0.2626361
vn 0.3578418 6.406196E-07 -0.9337822
vn 0.3578418 6.406196E-07 -0.9337822
vn 0.3578418 6.406196E-07 -0.9337822
vn 0.1812388 6.775246E-07 -0.9834391
vn 0.1812388 6.775246E-07 -0.9834391
vn 0.1812388 6.775246E-07 -0.9834391
vn -0.1823638 -0.0009433707 -0.9832306
vn -0.1823638 -0.0009433707 -0.9832306
vn -0.1823638 -0.0009433707 -0.9832306
vn -0.357329 -0.0009435437 -0.9339781
vn -0.357329 -0.0009435437 -0.9339781
vn -0.357329 -0.0009435437 -0.9339781
vn 0.936892 -0.1685536 -0.3063056
vn 0.936892 -0.1685536 -0.3063056
vn 0.936892 -0.1685536 -0.3063056
vn 0.924551 -0.08824846 -0.370699
vn 0.924551 -0.08824846 -0.370699
vn 0.924551 -0.08824846 -0.370699
vn 0.9104818 -0.09972873 -0.4013443
vn 0.9104818 -0.09972873 -0.4013443
vn 0.9104818 -0.09972873 -0.4013443
vn 0.8972154 -2.430543E-07 -0.4415932
vn 0.8972154 -2.430543E-07 -0.4415932
vn 0.8972154 -2.430543E-07 -0.4415932
vn 0.6637308 -4.261935E-07 -0.7479716
vn 0.6637308 -4.261935E-07 -0.7479716
vn 0.6637308 -4.261935E-07 -0.7479716
vn -0.8101239 -3.196722E-07 -0.5862588
vn -0.8101239 -3.196722E-07 -0.5862588
vn -0.8101239 -3.196722E-07 -0.5862588
vn 0.9128234 -0.190669 -0.3611075
vn 0.9128234 -0.190669 -0.3611075
vn 0.9128234 -0.190669 -0.3611075
vn 0.09689347 0.1373097 -0.9857778
vn 0.09689347 0.1373097 -0.9857778
vn 0.09689347 0.1373097 -0.9857778
vn -0.09719221 0.1373179 -0.9857472
vn -0.09719221 0.1373179 -0.9857472
vn -0.09719221 0.1373179 -0.9857472
vn 0.4357261 0.1551774 -0.8866019
vn 0.4357261 0.1551774 -0.8866019
vn 0.4357261 0.1551774 -0.8866019
vn 0.5723727 0.1559966 -0.8050184
vn 0.5723727 0.1559966 -0.8050184
vn 0.5723727 0.1559966 -0.8050184
vn -0.4357246 0.1551799 -0.886602
vn -0.4357246 0.1551799 -0.886602
vn -0.4357246 0.1551799 -0.886602
vn -0.7904596 0.4122322 -0.4530324
vn -0.7904596 0.4122322 -0.4530324
vn -0.7904596 0.4122322 -0.4530324
vn 0.9104816 0.09972816 -0.4013445
vn 0.9104816 0.09972816 -0.4013445
vn 0.9104816 0.09972816 -0.4013445
vn 0.9245508 0.08824793 -0.3706992
vn 0.9245508 0.08824793 -0.3706992
vn 0.9245508 0.08824793 -0.3706992
vn 0.9128406 0.1905739 -0.3611144
vn 0.9128406 0.1905739 -0.3611144
vn 0.9128406 0.1905739 -0.3611144
vn 0.9368804 0.1685135 -0.3063632
vn 0.9368804 0.1685135 -0.3063632
vn 0.9368804 0.1685135 -0.3063632
vn 0.3511356 0.294297 -0.8888717
vn 0.3511356 0.294297 -0.8888717
vn 0.3511356 0.294297 -0.8888717
vn 0.1667252 0.3078535 -0.9367118
vn 0.1667252 0.3078535 -0.9367118
vn 0.1667252 0.3078535 -0.9367118
vn -0.351405 0.2938887 -0.8889004
vn -0.351405 0.2938887 -0.8889004
vn -0.351405 0.2938887 -0.8889004
vn -0.1670965 0.3075201 -0.9367552
vn -0.1670965 0.3075201 -0.9367552
vn -0.1670965 0.3075201 -0.9367552
vn 0.8905742 0.2084858 -0.4042418
vn 0.8905742 0.2084858 -0.4042418
vn 0.8905742 0.2084858 -0.4042418
vn 0.6330351 0.316097 -0.7066465
vn 0.6330351 0.316097 -0.7066465
vn 0.6330351 0.316097 -0.7066465
vn -0.8871384 0.3355745 -0.3168205
vn -0.8871384 0.3355745 -0.3168205
vn -0.8871384 0.3355745 -0.3168205
vn -0.8891281 0.3512515 -0.293383
vn -0.8891281 0.3512515 -0.293383
vn -0.8891281 0.3512515 -0.293383
vn 0.09944535 0.4008869 -0.9107141
vn 0.09944535 0.4008869 -0.9107141
vn 0.09944535 0.4008869 -0.9107141
vn -0.09866063 0.4023222 -0.9101664
vn -0.09866063 0.4023222 -0.9101664
vn -0.09866063 0.4023222 -0.9101664
vn 0.4120516 0.4521424 -0.791063
vn 0.4120516 0.4521424 -0.791063
vn 0.4120516 0.4521424 -0.791063
vn 0.5477644 0.4506621 -0.7048814
vn 0.5477644 0.4506621 -0.7048814
vn 0.5477644 0.4506621 -0.7048814
vn 0.8893713 0.3510488 -0.2928881
vn 0.8893713 0.3510488 -0.2928881
vn 0.8893713 0.3510488 -0.2928881
vn 0.9007551 0.3411008 -0.2688688
vn 0.9007551 0.3411008 -0.2688688
vn 0.9007551 0.3411008 -0.2688688
vn -0.4118891 0.4521373 -0.7911505
vn -0.4118891 0.4521373 -0.7911505
vn -0.4118891 0.4521373 -0.7911505
vn 0.8880711 0.3402207 -0.3091597
vn 0.8880711 0.3402207 -0.3091597
vn 0.8880711 0.3402207 -0.3091597
vn 0.2700764 0.5795845 -0.7688566
vn 0.2700764 0.5795845 -0.7688566
vn 0.2700764 0.5795845 -0.7688566
vn 0.1619432 0.5628453 -0.8105429
vn 0.1619432 0.5628453 -0.8105429
vn 0.1619432 0.5628453 -0.8105429
vn -0.2704617 0.5786694 -0.7694103
vn -0.2704617 0.5786694 -0.7694103
vn -0.2704617 0.5786694 -0.7694103
vn -0.1600897 0.5620712 -0.8114477
vn -0.1600897 0.5620712 -0.8114477
vn -0.1600897 0.5620712 -0.8114477
vn 0.7428302 0.5955079 -0.3058982
vn 0.7428302 0.5955079 -0.3058982
vn 0.7428302 0.5955079 -0.3058982
vn 0.5849462 0.6332638 -0.5067691
vn 0.5849462 0.6332638 -0.5067691
vn 0.5849462 0.6332638 -0.5067691
vn -0.7043636 0.6348937 -0.3174615
vn -0.7043636 0.6348937 -0.3174615
vn -0.7043636 0.6348937 -0.3174615
vn -0.7056164 0.6343541 -0.3157539
vn -0.7056164 0.6343541 -0.3157539
vn -0.7056164 0.6343541 -0.3157539
vn 0.7098529 0.6325347 -0.3098528
vn 0.7098529 0.6325347 -0.3098528
vn 0.7098529 0.6325347 -0.3098528
vn 0.7402459 0.6175749 -0.2657768
vn 0.7402459 0.6175749 -0.2657768
vn 0.7402459 0.6175749 -0.2657768
vn -0.0003285932 0.6616521 -0.749811
vn -0.0003285932 0.6616521 -0.749811
vn -0.0003285932 0.6616521 -0.749811
vn 0.515827 0.6960412 -0.4994487
vn 0.515827 0.6960412 -0.4994487
vn 0.515827 0.6960412 -0.4994487
vn 0.3120588 0.7054146 -0.6364036
vn 0.3120588 0.7054146 -0.6364036
vn 0.3120588 0.7054146 -0.6364036
vn -0.7240033 0.6101094 -0.3218475
vn -0.7240033 0.6101094 -0.3218475
vn -0.7240033 0.6101094 -0.3218475
vn 0.6893925 0.6788105 -0.2528915
vn 0.6893925 0.6788105 -0.2528915
vn 0.6893925 0.6788105 -0.2528915
vn 0.5166073 0.7393336 -0.4318595
vn 0.5166073 0.7393336 -0.4318595
vn 0.5166073 0.7393336 -0.4318595
vn 0.0006283062 0.7493982 -0.6621192
vn 0.0006283062 0.7493982 -0.6621192
vn 0.0006283062 0.7493982 -0.6621192
vn 0.1535869 0.8035398 -0.5750955
vn 0.1535869 0.8035398 -0.5750955
vn 0.1535869 0.8035398 -0.5750955
vn 0.2935931 0.8896953 -0.349636
vn 0.2935931 0.8896953 -0.349636
vn 0.2935931 0.8896953 -0.349636
vn 0.1539319 0.8871535 -0.4350443
vn 0.1539319 0.8871535 -0.4350443
vn 0.1539319 0.8871535 -0.4350443
vn 0.0004548985 0.9337943 -0.3578102
vn 0.0004548985 0.9337943 -0.3578102
vn 0.0004548985 0.9337943 -0.3578102
vn 0.5221001 -0.8528788 0.003063014
vn 0.5221001 -0.8528788 0.003063014
vn 0.5221001 -0.8528788 0.003063014
vn -0.6158302 -0.5197004 -0.5921693
vn -0.6158302 -0.5197004 -0.5921693
vn -0.6158302 -0.5197004 -0.5921693
vn -0.7837319 0.56328 -0.2616866
vn -0.7837319 0.56328 -0.2616866
vn -0.7837319 0.56328 -0.2616866
vn -0.8600615 -0.3583522 -0.3631502
vn -0.8600615 -0.3583522 -0.3631502
vn -0.8600615 -0.3583522 -0.3631502
vn -0.6737103 -0.5206345 -0.5244558
vn -0.6737103 -0.5206345 -0.5244558
vn -0.6737103 -0.5206345 -0.5244558
vn -0.6237147 -0.4445855 -0.6429024
vn -0.6237147 -0.4445855 -0.6429024
vn -0.6237147 -0.4445855 -0.6429024
vn -0.9284714 0.02905958 -0.3702654
vn -0.9284714 0.02905958 -0.3702654
vn -0.9284714 0.02905958 -0.3702654
vn -0.6703659 -0.5370168 -0.5120766
vn -0.6703659 -0.5370168 -0.5120766
vn -0.6703659 -0.5370168 -0.5120766
vn -0.9409716 -0.07121516 -0.330909
vn -0.9409716 -0.07121516 -0.330909
vn -0.9409716 -0.07121516 -0.330909
vn -0.8130682 -0.3054306 -0.495613
vn -0.8130682 -0.3054306 -0.495613
vn -0.8130682 -0.3054306 -0.495613
vn -0.7887477 -0.502555 -0.3539995
vn -0.7887477 -0.502555 -0.3539995
vn -0.7887477 -0.502555 -0.3539995
vn -0.8351666 -0.4750526 -0.2771672
vn -0.8351666 -0.4750526 -0.2771672
vn -0.8351666 -0.4750526 -0.2771672
vn -0.7609271 -0.2751291 -0.5876171
vn -0.7609271 -0.2751291 -0.5876171
vn -0.7609271 -0.2751291 -0.5876171
vn -0.7686276 -0.2720648 -0.5789578
vn -0.7686276 -0.2720648 -0.5789578
vn -0.7686276 -0.2720648 -0.5789578
vn -0.9367732 -0.1681459 -0.3068922
vn -0.9367732 -0.1681459 -0.3068922
vn -0.9367732 -0.1681459 -0.3068922
vn -0.9284574 -0.1762589 -0.326955
vn -0.9284574 -0.1762589 -0.326955
vn -0.9284574 -0.1762589 -0.326955
vn -0.8107528 -0.1613645 -0.5627089
vn -0.8107528 -0.1613645 -0.5627089
vn -0.8107528 -0.1613645 -0.5627089
vn -0.9104815 -0.09972864 -0.4013446
vn -0.9104815 -0.09972864 -0.4013446
vn -0.9104815 -0.09972864 -0.4013446
vn -0.9104817 0.0997282 -0.4013446
vn -0.9104817 0.0997282 -0.4013446
vn -0.9104817 0.0997282 -0.4013446
vn -0.9367734 0.1681454 -0.3068923
vn -0.9367734 0.1681454 -0.3068923
vn -0.9367734 0.1681454 -0.3068923
vn -0.2756822 -0.5877659 -0.7606119
vn -0.2756822 -0.5877659 -0.7606119
vn -0.2756822 -0.5877659 -0.7606119
vn -0.5086416 -0.4053024 -0.7596141
vn -0.5086416 -0.4053024 -0.7596141
vn -0.5086416 -0.4053024 -0.7596141
vn -0.6205805 -0.5189469 -0.5878553
vn -0.6205805 -0.5189469 -0.5878553
vn -0.6205805 -0.5189469 -0.5878553
vn -0.65812 -0.153876 -0.7370211
vn -0.65812 -0.153876 -0.7370211
vn -0.65812 -0.153876 -0.7370211
vn -0.7491171 -4.054744E-07 -0.6624376
vn -0.7491171 -4.054744E-07 -0.6624376
vn -0.7491171 -4.054744E-07 -0.6624376
vn -0.1534231 0.8868722 -0.4357971
vn -0.1534231 0.8868722 -0.4357971
vn -0.1534231 0.8868722 -0.4357971
vn -0.1531091 0.8051359 -0.5729867
vn -0.1531091 0.8051359 -0.5729867
vn -0.1531091 0.8051359 -0.5729867
vn -0.2926944 0.8894667 -0.3509685
vn -0.2926944 0.8894667 -0.3509685
vn -0.2926944 0.8894667 -0.3509685
vn -0.5400378 0.7168351 -0.4410289
vn -0.5400378 0.7168351 -0.4410289
vn -0.5400378 0.7168351 -0.4410289
vn -0.527597 0.6940495 -0.4898331
vn -0.527597 0.6940495 -0.4898331
vn -0.527597 0.6940495 -0.4898331
vn -0.3140646 0.7055249 -0.6352936
vn -0.3140646 0.7055249 -0.6352936
vn -0.3140646 0.7055249 -0.6352936
vn -0.6935028 0.5514423 -0.4636433
vn -0.6935028 0.5514423 -0.4636433
vn -0.6935028 0.5514423 -0.4636433
vn -0.7038255 0.5481166 -0.4518825
vn -0.7038255 0.5481166 -0.4518825
vn -0.7038255 0.5481166 -0.4518825
vn -0.6251369 0.4438635 -0.6420196
vn -0.6251369 0.4438635 -0.6420196
vn -0.6251369 0.4438635 -0.6420196
vn -0.7609989 0.2750994 -0.5875381
vn -0.7609989 0.2750994 -0.5875381
vn -0.7609989 0.2750994 -0.5875381
vn -0.657643 0.15428 -0.7373625
vn -0.657643 0.15428 -0.7373625
vn -0.657643 0.15428 -0.7373625
vn -0.7686282 0.272063 -0.578958
vn -0.7686282 0.272063 -0.578958
vn -0.7686282 0.272063 -0.578958
vn -0.8107529 0.1613639 -0.5627091
vn -0.8107529 0.1613639 -0.5627091
vn -0.8107529 0.1613639 -0.5627091
vn 4.893861E-07 -0.9317959 -0.3629827
vn 4.893861E-07 -0.9317959 -0.3629827
vn 4.893861E-07 -0.9317959 -0.3629827

vt 0.02445911 0.7259074
vt 0.2638755 0.5086234
vt 0.2634431 0.5081398
vt -0.6248597 -0.3163871
vt -0.6254969 -0.3162653
vt -0.6519082 -0.04722271
vt 0.3832419 -0.008215356
vt 0.3214081 0.1888602
vt 0.4637214 0.02463791
vt 0.4117887 -0.03955295
vt 0.5524946 -0.03896128
vt 0.482877 -0.1619717
vt 0.4637214 0.02463791
vt 0.3214081 0.1888602
vt 0.3895651 0.2747051
vt 0.4637214 0.02463791
vt 0.3905069 0.2755315
vt 0.5329801 0.2759236
vt 0.5960837 0.189904
vt 0.6502306 0.3234333
vt 0.7380242 0.3506852
vt 0.3832419 -0.008215356
vt 0.1841511 0.2195897
vt 0.3214081 0.1888602
vt 0.3895651 0.2747051
vt 0.3214081 0.1888602
vt 0.2745377 0.3216576
vt 0.3214081 0.1888602
vt 0.1841511 0.2195897
vt 0.1556804 0.3521067
vt 0.3214081 0.1888602
vt 0.1556804 0.3521067
vt 0.2745377 0.3216576
vt 0.7259409 0.2259643
vt 0.5960837 0.189904
vt 0.7380242 0.3506852
vt 0.3901291 0.2770519
vt 0.2745377 0.3216576
vt 0.3486362 0.3919315
vt 0.5329801 0.2759236
vt 0.3905069 0.2755315
vt 0.4639585 0.3516362
vt 0.4639585 0.3516362
vt 0.3901291 0.2770519
vt 0.3486362 0.3919315
vt 0.5329801 0.2759236
vt 0.4639585 0.3516362
vt 0.5795993 0.3923926
vt 0.5329801 0.2759236
vt 0.5795993 0.3923926
vt 0.6502306 0.3234333
vt 0.3486362 0.3919315
vt 0.4655901 0.4644299
vt 0.4639585 0.3516362
vt 0.5795993 0.3923926
vt 0.4639585 0.3516362
vt 0.4655901 0.4644299
vt 0.1556804 0.3521067
vt 0.1827465 0.3934767
vt 0.2745377 0.3216576
vt 0.2745377 0.3216576
vt 0.1827465 0.3934767
vt 0.240777 0.4467905
vt 0.3486362 0.3919315
vt 0.2745377 0.3216576
vt 0.240777 0.4467905
vt 0.1841511 0.2195897
vt 0.1036097 0.3436013
vt 0.1556804 0.3521067
vt 0.6502306 0.3234333
vt 0.5795993 0.3923926
vt 0.6850916 0.449041
vt 0.240777 0.4467905
vt 0.3483233 0.5131823
vt 0.3486362 0.3919315
vt 0.3483233 0.5131823
vt 0.4655901 0.4644299
vt 0.3486362 0.3919315
vt 0.5795993 0.3923926
vt 0.4655901 0.4644299
vt 0.5820593 0.5140653
vt 0.6850916 0.449041
vt 0.5795993 0.3923926
vt 0.5820593 0.5140653
vt 0.1556804 0.3521067
vt 0.1427621 0.3786037
vt 0.1827465 0.3934767
vt 0.1556804 0.3521067
vt 0.1036097 0.3436013
vt 0.1427621 0.3786037
vt 0.1827465 0.3934767
vt 0.1427621 0.3786037
vt 0.1022074 0.4658337
vt 0.240777 0.4467905
vt 0.1827465 0.3934767
vt 0.1486087 0.5117172
vt 0.3483233 0.5131823
vt 0.465925 0.5861224
vt 0.4655901 0.4644299
vt 0.5820593 0.5140653
vt 0.4655901 0.4644299
vt 0.465925 0.5861224
vt 0.1827465 0.3934767
vt 0.1022074 0.4658337
vt 0.1486087 0.5117172
vt 0.1486087 0.5117172
vt 0.2294736 0.5843948
vt 0.240777 0.4467905
vt 0.2294736 0.5843948
vt 0.3483233 0.5131823
vt 0.240777 0.4467905
vt 0.6850916 0.449041
vt 0.5820593 0.5140653
vt 0.696883 0.5861208
vt 0.8491673 0.5829399
vt 0.8340989 0.5835333
vt 0.8268639 0.6997538
vt 0.09925351 0.3461315
vt 0.1427621 0.3786037
vt 0.1036097 0.3436013
vt 0.05839263 0.4627577
vt 0.1427621 0.3786037
vt 0.09925351 0.3461315
vt 0.05839263 0.4627577
vt 0.1022074 0.4658337
vt 0.1427621 0.3786037
vt 0.3477143 0.6576921
vt 0.3483233 0.5131823
vt 0.2294736 0.5843948
vt 0.3477143 0.6576921
vt 0.465925 0.5861224
vt 0.3483233 0.5131823
vt 0.5820593 0.5140653
vt 0.465925 0.5861224
vt 0.5814926 0.6585553
vt 0.5820593 0.5140653
vt 0.5814926 0.6585553
vt 0.696883 0.5861208
vt 0.05481857 0.5802841
vt 0.1022074 0.4658337
vt 0.05839263 0.4627577
vt 0.1486087 0.5117172
vt 0.1022074 0.4658337
vt 0.1086418 0.5819991
vt 0.05481857 0.5802841
vt 0.1086418 0.5819991
vt 0.1022074 0.4658337
vt 0.1086418 0.5819991
vt 0.1480066 0.654592
vt 0.1486087 0.5117172
vt 0.1480066 0.654592
vt 0.2294736 0.5843948
vt 0.1486087 0.5117172
vt 0.7260564 0.5142208
vt 0.696883 0.5861208
vt 0.7254543 0.6570959
vt 0.03661861 0.5796453
vt 0.05481857 0.5802841
vt 0.05839263 0.4627577
vt 0.3477143 0.6576921
vt 0.464749 0.7074853
vt 0.465925 0.5861224
vt 0.5814926 0.6585553
vt 0.465925 0.5861224
vt 0.464749 0.7074853
vt 0.2399085 0.7213879
vt 0.3477143 0.6576921
vt 0.2294736 0.5843948
vt 0.1480066 0.654592
vt 0.2399085 0.7213879
vt 0.2294736 0.5843948
vt 0.696883 0.5861208
vt 0.5814926 0.6585553
vt 0.6838824 0.7230275
vt 0.7169762 0.774158
vt 0.7657757 0.8058767
vt 0.7922283 0.6999333
vt 0.1012331 0.6970103
vt 0.1086418 0.5819991
vt 0.05481857 0.5802841
vt 0.1012331 0.6970103
vt 0.1480066 0.654592
vt 0.1086418 0.5819991
vt 0.05743873 0.6964917
vt 0.05481857 0.5802841
vt 0.03661861 0.5796453
vt 0.1012331 0.6970103
vt 0.05481857 0.5802841
vt 0.05743873 0.6964917
vt 0.2399085 0.7213879
vt 0.347038 0.7778242
vt 0.3477143 0.6576921
vt 0.347038 0.7778242
vt 0.464749 0.7074853
vt 0.3477143 0.6576921
vt 0.6838824 0.7230275
vt 0.5814926 0.6585553
vt 0.5781731 0.7783124
vt 0.5814926 0.6585553
vt 0.464749 0.7074853
vt 0.5781731 0.7783124
vt 0.1518509 0.7716999
vt 0.1480066 0.654592
vt 0.1012331 0.6970103
vt 0.1518509 0.7716999
vt 0.2399085 0.7213879
vt 0.1480066 0.654592
vt 0.8268639 0.6997538
vt 0.7657757 0.8058767
vt 0.7817702 0.8165162
vt 0.8268639 0.6997538
vt 0.7922283 0.6999333
vt 0.7657757 0.8058767
vt 0.347038 0.7778242
vt 0.4630879 0.7108893
vt 0.464749 0.7074853
vt 0.5781731 0.7783124
vt 0.464749 0.7074853
vt 0.4630879 0.7108893
vt 0.2701603 0.8449957
vt 0.347038 0.7778242
vt 0.2399085 0.7213879
vt 0.2701603 0.8449957
vt 0.2399085 0.7213879
vt 0.1518509 0.7716999
vt 0.1224954 0.8031298
vt 0.1012331 0.6970103
vt 0.05743873 0.6964917
vt 0.1224954 0.8031298
vt 0.1518509 0.7716999
vt 0.1012331 0.6970103
vt 0.5781731 0.7783124
vt 0.6484215 0.8463926
vt 0.6838824 0.7230275
vt 0.1224954 0.8031298
vt 0.05743873 0.6964917
vt 0.1017192 0.8134293
vt 0.3898345 0.8912269
vt 0.347038 0.7778242
vt 0.2701603 0.8449957
vt 0.3898345 0.8912269
vt 0.4630879 0.7108893
vt 0.347038 0.7778242
vt 0.5302463 0.8931559
vt 0.6484215 0.8463926
vt 0.5781731 0.7783124
vt 0.4630879 0.7108893
vt 0.5302463 0.8931559
vt 0.5781731 0.7783124
vt 0.2125255 0.887861
vt 0.1518509 0.7716999
vt 0.1224954 0.8031298
vt 0.2701603 0.8449957
vt 0.1518509 0.7716999
vt 0.2125255 0.887861
vt 0.7817702 0.8165162
vt 0.7657757 0.8058767
vt 0.7116055 0.8946482
vt 0.6690453 0.8899181
vt 0.7116055 0.8946482
vt 0.7657757 0.8058767
vt 0.1709211 0.8921651
vt 0.1224954 0.8031298
vt 0.1017192 0.8134293
vt 0.1709211 0.8921651
vt 0.2125255 0.887861
vt 0.1224954 0.8031298
vt 0.3898345 0.8912269
vt 0.5290821 0.8933722
vt 0.4630879 0.7108893
vt 0.3182321 0.9424387
vt 0.2701603 0.8449957
vt 0.2125255 0.887861
vt 0.3182321 0.9424387
vt 0.3898345 0.8912269
vt 0.2701603 0.8449957
vt 0.6443569 0.9660633
vt 0.7116055 0.8946482
vt 0.6690453 0.8899181
vt 0.2586573 0.9643164
vt 0.2125255 0.887861
vt 0.1709211 0.8921651
vt 0.2586573 0.9643164
vt 0.3182321 0.9424387
vt 0.2125255 0.887861
vt 0.4564642 0.9576724
vt 0.5290821 0.8933722
vt 0.3898345 0.8912269
vt 0.3182321 0.9424387
vt 0.4564642 0.9576724
vt 0.3898345 0.8912269
vt 0.2586573 0.9643164
vt 0.3799685 1.003698
vt 0.3182321 0.9424387
vt 0.3799685 1.003698
vt 0.4564642 0.9576724
vt 0.3182321 0.9424387
vt 0.5401654 0.9477552
vt 0.4564642 0.9576724
vt 0.3799685 1.003698
vt 0.4564642 0.9576724
vt 0.3799685 1.003698
vt 0.123824 0.9832733
vt 0.7259409 0.2259643
vt 0.5281063 -0.008949399
vt 0.5960837 0.189904
vt 0.4637214 0.02463791
vt 0.5524946 -0.03896128
vt 0.482877 -0.1619717
vt 0.7259409 0.2259643
vt 0.7380242 0.3506852
vt 0.7806363 0.3430907
vt 0.6502306 0.3234333
vt 0.7185708 0.3958267
vt 0.7380242 0.3506852
vt 0.6502306 0.3234333
vt 0.6850916 0.449041
vt 0.7185708 0.3958267
vt 0.7806363 0.3430907
vt 0.7380242 0.3506852
vt 0.7558424 0.3728386
vt 0.7806363 0.3430907
vt 0.7558424 0.3728386
vt 0.7837412 0.348873
vt 0.7380242 0.3506852
vt 0.7185708 0.3958267
vt 0.7558424 0.3728386
vt 0.7558424 0.3728386
vt 0.8278493 0.4659321
vt 0.7837412 0.348873
vt 0.7558424 0.3728386
vt 0.7185708 0.3958267
vt 0.7932026 0.4687567
vt 0.7558424 0.3728386
vt 0.7932026 0.4687567
vt 0.8278493 0.4659321
vt 0.7185708 0.3958267
vt 0.6850916 0.449041
vt 0.7260564 0.5142208
vt 0.7185708 0.3958267
vt 0.7260564 0.5142208
vt 0.7932026 0.4687567
vt 0.7932026 0.4687567
vt 0.8340989 0.5835333
vt 0.8278493 0.4659321
vt 0.8278493 0.4659321
vt 0.8340989 0.5835333
vt 0.8491673 0.5829399
vt 0.7932026 0.4687567
vt 0.7260564 0.5142208
vt 0.7889491 0.5848826
vt 0.7932026 0.4687567
vt 0.7889491 0.5848826
vt 0.8340989 0.5835333
vt 0.8340989 0.5835333
vt 0.7889491 0.5848826
vt 0.7922283 0.6999333
vt 0.8340989 0.5835333
vt 0.7922283 0.6999333
vt 0.8268639 0.6997538
vt 0.5960837 0.189904
vt 0.5329801 0.2759236
vt 0.6502306 0.3234333
vt 0.5960837 0.189904
vt 0.4637214 0.02463791
vt 0.5329801 0.2759236
vt 0.5281063 -0.008949399
vt 0.4637214 0.02463791
vt 0.5960837 0.189904
vt 0.7260564 0.5142208
vt 0.6850916 0.449041
vt 0.696883 0.5861208
vt 0.7889491 0.5848826
vt 0.7260564 0.5142208
vt 0.7254543 0.6570959
vt 0.5401654 0.9477552
vt 0.5930548 0.9434536
vt 0.4564642 0.9576724
vt 0.4564642 0.9576724
vt 0.5930548 0.9434536
vt 0.5302463 0.8931559
vt 0.5401654 0.9477552
vt 0.6443569 0.9660633
vt 0.5930548 0.9434536
vt 0.5930548 0.9434536
vt 0.6443569 0.9660633
vt 0.6690453 0.8899181
vt 0.5930548 0.9434536
vt 0.6690453 0.8899181
vt 0.6484215 0.8463926
vt 0.5302463 0.8931559
vt 0.5930548 0.9434536
vt 0.6484215 0.8463926
vt 0.6690453 0.8899181
vt 0.7169762 0.774158
vt 0.6484215 0.8463926
vt 0.6690453 0.8899181
vt 0.7657757 0.8058767
vt 0.7169762 0.774158
vt 0.6484215 0.8463926
vt 0.7169762 0.774158
vt 0.6838824 0.7230275
vt 0.6838824 0.7230275
vt 0.7169762 0.774158
vt 0.7254543 0.6570959
vt 0.7254543 0.6570959
vt 0.696883 0.5861208
vt 0.6838824 0.7230275
vt 0.7169762 0.774158
vt 0.7922283 0.6999333
vt 0.7254543 0.6570959
vt 0.7254543 0.6570959
vt 0.7922283 0.6999333
vt 0.7889491 0.5848826
vt 0.4117887 -0.03955295
vt 0.4637214 0.02463791
vt 0.5524946 -0.03896128

g Mask
usemtl Mask
f 3/3/3 2/2/2 1/1/1
f 6/6/6 5/5/5 4/4/4
f 9/9/9 8/8/8 7/7/7
f 12/12/12 11/11/11 10/10/10
f 15/15/15 14/14/14 13/13/13
f 18/18/18 17/17/17 16/16/16
f 21/21/21 20/20/20 19/19/19
f 24/24/24 23/23/23 22/22/22
f 27/27/27 26/26/26 25/25/25
f 30/30/30 29/29/29 28/28/28
f 33/33/33 32/32/32 31/31/31
f 36/36/36 35/35/35 34/34/34
f 39/39/39 38/38/38 37/37/37
f 42/42/42 41/41/41 40/40/40
f 45/45/45 44/44/44 43/43/43
f 48/48/48 47/47/47 46/46/46
f 51/51/51 50/50/50 49/49/49
f 54/54/54 53/53/53 52/52/52
f 57/57/57 56/56/56 55/55/55
f 60/60/60 59/59/59 58/58/58
f 63/63/63 62/62/62 61/61/61
f 66/66/66 65/65/65 64/64/64
f 69/69/69 68/68/68 67/67/67
f 72/72/72 71/71/71 70/70/70
f 75/75/75 74/74/74 73/73/73
f 78/78/78 77/77/77 76/76/76
f 81/81/81 80/80/80 79/79/79
f 84/84/84 83/83/83 82/82/82
f 87/87/87 86/86/86 85/85/85
f 90/90/90 89/89/89 88/88/88
f 93/93/93 92/92/92 91/91/91
f 96/96/96 95/95/95 94/94/94
f 99/99/99 98/98/98 97/97/97
f 102/102/102 101/101/101 100/100/100
f 105/105/105 104/104/104 103/103/103
f 108/108/108 107/107/107 106/106/106
f 111/111/111 110/110/110 109/109/109
f 114/114/114 113/113/113 112/112/112
f 117/117/117 116/116/116 115/115/115
f 120/120/120 119/119/119 118/118/118
f 123/123/123 122/122/122 121/121/121
f 126/126/126 125/125/125 124/124/124
f 129/129/129 128/128/128 127/127/127
f 132/132/132 131/131/131 130/130/130
f 135/135/135 134/134/134 133/133/133
f 138/138/138 137/137/137 136/136/136
f 141/141/141 140/140/140 139/139/139
f 144/144/144 143/143/143 142/142/142
f 147/147/147 146/146/146 145/145/145
f 150/150/150 149/149/149 148/148/148
f 153/153/153 152/152/152 151/151/151
f 156/156/156 155/155/155 154/154/154
f 159/159/159 158/158/158 157/157/157
f 162/162/162 161/161/161 160/160/160
f 165/165/165 164/164/164 163/163/163
f 168/168/168 167/167/167 166/166/166
f 171/171/171 170/170/170 169/169/169
f 174/174/174 173/173/173 172/172/172
f 177/177/177 176/176/176 175/175/175
f 180/180/180 179/179/179 178/178/178
f 183/183/183 182/182/182 181/181/181
f 186/186/186 185/185/185 184/184/184
f 189/189/189 188/188/188 187/187/187
f 192/192/192 191/191/191 190/190/190
f 195/195/195 194/194/194 193/193/193
f 198/198/198 197/197/197 196/196/196
f 201/201/201 200/200/200 199/199/199
f 204/204/204 203/203/203 202/202/202
f 207/207/207 206/206/206 205/205/205
f 210/210/210 209/209/209 208/208/208
f 213/213/213 212/212/212 211/211/211
f 216/216/216 215/215/215 214/214/214
f 219/219/219 218/218/218 217/217/217
f 222/222/222 221/221/221 220/220/220
f 225/225/225 224/224/224 223/223/223
f 228/228/228 227/227/227 226/226/226
f 231/231/231 230/230/230 229/229/229
f 234/234/234 233/233/233 232/232/232
f 237/237/237 236/236/236 235/235/235
f 240/240/240 239/239/239 238/238/238
f 243/243/243 242/242/242 241/241/241
f 246/246/246 245/245/245 244/244/244
f 249/249/249 248/248/248 247/247/247
f 252/252/252 251/251/251 250/250/250
f 255/255/255 254/254/254 253/253/253
f 258/258/258 257/257/257 256/256/256
f 261/261/261 260/260/260 259/259/259
f 264/264/264 263/263/263 262/262/262
f 267/267/267 266/266/266 265/265/265
f 270/270/270 269/269/269 268/268/268
f 273/273/273 272/272/272 271/271/271
f 276/276/276 275/275/275 274/274/274
f 279/279/279 278/278/278 277/277/277
f 282/282/282 281/281/281 280/280/280
f 285/285/285 284/284/284 283/283/283
f 288/288/288 287/287/287 286/286/286
f 291/291/291 290/290/290 289/289/289
f 294/294/294 293/293/293 292/292/292
f 297/297/297 296/296/296 295/295/295
f 300/300/300 299/299/299 298/298/298
f 303/303/303 302/302/302 301/301/301
f 306/306/306 305/305/305 304/304/304
f 309/309/309 308/308/308 307/307/307
f 312/312/312 311/311/311 310/310/310
f 315/315/315 314/314/314 313/313/313
f 318/318/318 317/317/317 316/316/316
f 321/321/321 320/320/320 319/319/319
f 324/324/324 323/323/323 322/322/322
f 327/327/327 326/326/326 325/325/325
f 330/330/330 329/329/329 328/328/328
f 333/333/333 332/332/332 331/331/331
f 336/336/336 335/335/335 334/334/334
f 339/339/339 338/338/338 337/337/337
f 342/342/342 341/341/341 340/340/340
f 345/345/345 344/344/344 343/343/343
f 348/348/348 347/347/347 346/346/346
f 351/351/351 350/350/350 349/349/349
f 354/354/354 353/353/353 352/352/352
f 357/357/357 356/356/356 355/355/355
f 360/360/360 359/359/359 358/358/358
f 363/363/363 362/362/362 361/361/361
f 366/366/366 365/365/365 364/364/364
f 369/369/369 368/368/368 367/367/367
f 372/372/372 371/371/371 370/370/370
f 375/375/375 374/374/374 373/373/373
f 378/378/378 377/377/377 376/376/376
f 381/381/381 380/380/380 379/379/379
f 384/384/384 383/383/383 382/382/382
f 387/387/387 386/386/386 385/385/385
f 390/390/390 389/389/389 388/388/388
f 393/393/393 392/392/392 391/391/391
f 396/396/396 395/395/395 394/394/394
f 399/399/399 398/398/398 397/397/397
f 402/402/402 401/401/401 400/400/400
f 405/405/405 404/404/404 403/403/403
f 408/408/408 407/407/407 406/406/406
f 411/411/411 410/410/410 409/409/409
f 414/414/414 413/413/413 412/412/412
f 417/417/417 416/416/416 415/415/415

