newmtl WoodenPlanks
map_Kd -o 0 0 -s 1 1 F:/Proyectos/gitgames/AwakenGit/Assets/GraphicRelated/Material/Floors/WoodenPlanks/Wooden_planks_04_2K_Base_Color.png
map_Pm -o 0 0 -s 1 1 F:/Proyectos/gitgames/AwakenGit/Assets/GraphicRelated/Material/Floors/WoodenPlanks/Wooden_planks_04_2K_Roughness.png
bump -o 0 0 -s 1 1 F:/Proyectos/gitgames/AwakenGit/Assets/GraphicRelated/Material/Floors/WoodenPlanks/Wooden_planks_04_2K_Normal.png
disp -o 0 0 -s 1 1 F:/Proyectos/gitgames/AwakenGit/Assets/GraphicRelated/Material/Floors/WoodenPlanks/Wooden_planks_04_2K_Height.png
Kd 1 1 1
d 1

newmtl Wood
map_Kd -o 0.26 -0.02 -s 0.48 1 F:/Proyectos/gitgames/AwakenGit/Assets/GraphicRelated/Material/Floors/Wood/Wood10_col.jpg
map_Pm -o 0 0 -s 1 1 F:/Proyectos/gitgames/AwakenGit/Assets/GraphicRelated/Material/Floors/Wood/Wood10_rgh.jpg
bump -o 0 0 -s 1 1 F:/Proyectos/gitgames/AwakenGit/Assets/GraphicRelated/Material/Floors/Wood/Wood10_nrm.jpg
disp -o 0 0 -s 1 1 F:/Proyectos/gitgames/AwakenGit/Assets/GraphicRelated/Material/Floors/Wood/Wood10_disp.jpg
Kd 1 1 1
d 1

